<?xml version="1.0" encoding="utf-8"?>
<!-- Generator: Adobe Illustrator 22.1.0, SVG Export Plug-In . SVG Version: 6.00 Build 0)  -->
<svg version="1.1" id="Laag_1" xmlns="http://www.w3.org/2000/svg" xmlns:xlink="http://www.w3.org/1999/xlink" x="0px" y="0px"
	 viewBox="0 0 29.5 29.5" style="enable-background:new 0 0 29.5 29.5;" xml:space="preserve">
<title>Page 1</title>
<path d="M28.6,5.5c-0.6-0.6-1.4-0.9-2.2-0.9l0,0H3l0,0c-0.8,0-1.6,0.3-2.2,0.9C0.2,6.1-0.1,6.9-0.1,7.7v14.2c0,1.7,1.4,3.1,3.1,3.1
	h23.4c1.7,0,3.1-1.4,3.1-3.1V7.7C29.5,6.8,29.2,6.1,28.6,5.5z M2.3,8.2l11.8,9.4c0.4,0.3,1,0.3,1.4,0l11.8-9.4v13.7
	c0,0.4-0.4,0.8-0.8,0.8H3.1c-0.4,0-0.8-0.4-0.8-0.8V8.2z M14.8,15.3L4.3,6.9h21L14.8,15.3z"/>
</svg>
